^C:\USERS\NIKKI\DOCUMENTS\VISUAL STUDIO 2013\PROJECTS\PROJECT1\PROJECT1\SOURCE.CPP
C:\USERS\NIKKI\DOCUMENTS\VISUAL STUDIO 2013\PROJECTS\PROJECT1\PROJECT1\DEBUG\VC120.PDB
C:\USERS\NIKKI\DOCUMENTS\VISUAL STUDIO 2013\PROJECTS\PROJECT1\PROJECT1\DEBUG\VC120.IDB
C:\USERS\NIKKI\DOCUMENTS\VISUAL STUDIO 2013\PROJECTS\PROJECT1\PROJECT1\DEBUG\SOURCE.OBJ
^C:\USERS\NIKKI\DOCUMENTS\VISUAL STUDIO 2013\PROJECTS\PROJECT1\PROJECT1\TEST.CPP|C:\USERS\NIKKI\DOCUMENTS\VISUAL STUDIO 2013\PROJECTS\PROJECT1\PROJECT1\TESTDRIVER.CPP
C:\USERS\NIKKI\DOCUMENTS\VISUAL STUDIO 2013\PROJECTS\PROJECT1\PROJECT1\DEBUG\VC120.PDB
C:\USERS\NIKKI\DOCUMENTS\VISUAL STUDIO 2013\PROJECTS\PROJECT1\PROJECT1\DEBUG\VC120.IDB
C:\USERS\NIKKI\DOCUMENTS\VISUAL STUDIO 2013\PROJECTS\PROJECT1\PROJECT1\DEBUG\TEST.OBJ
^C:\USERS\NIKKI\DOCUMENTS\VISUAL STUDIO 2013\PROJECTS\PROJECT1\PROJECT1\TEST.CPP
C:\USERS\NIKKI\DOCUMENTS\VISUAL STUDIO 2013\PROJECTS\PROJECT1\PROJECT1\DEBUG\VC120.PDB
C:\USERS\NIKKI\DOCUMENTS\VISUAL STUDIO 2013\PROJECTS\PROJECT1\PROJECT1\DEBUG\VC120.IDB
C:\USERS\NIKKI\DOCUMENTS\VISUAL STUDIO 2013\PROJECTS\PROJECT1\PROJECT1\DEBUG\TEST.OBJ
^C:\USERS\NIKKI\DOCUMENTS\VISUAL STUDIO 2013\PROJECTS\PROJECT1\PROJECT1\TESTDRIVER.CPP
C:\USERS\NIKKI\DOCUMENTS\VISUAL STUDIO 2013\PROJECTS\PROJECT1\PROJECT1\DEBUG\VC120.PDB
C:\USERS\NIKKI\DOCUMENTS\VISUAL STUDIO 2013\PROJECTS\PROJECT1\PROJECT1\DEBUG\VC120.IDB
C:\USERS\NIKKI\DOCUMENTS\VISUAL STUDIO 2013\PROJECTS\PROJECT1\PROJECT1\DEBUG\TESTDRIVER.OBJ
